<?xml version="1.0" encoding="utf-8"?>
<!-- Generator: Adobe Illustrator 18.1.1, SVG Export Plug-In . SVG Version: 6.00 Build 0)  -->
<!DOCTYPE svg PUBLIC "-//W3C//DTD SVG 1.1//EN" "http://www.w3.org/Graphics/SVG/1.1/DTD/svg11.dtd">
<svg version="1.1" id="Layer_1" xmlns="http://www.w3.org/2000/svg" xmlns:xlink="http://www.w3.org/1999/xlink" x="0px" y="0px"
	 viewBox="0 0 11.7 11.7" enable-background="new 0 0 11.7 11.7" xml:space="preserve">
<path d="M4.8,3.8c0,0.2,0,0.8,0,0.8H4v1.2h0.8v4.3h1.6V5.8h1.2c0,0,0-0.5,0-1.2c-0.1,0-1.2,0-1.2,0s0-0.5,0-0.7
	c0-0.1,0.2-0.3,0.3-0.3c0.2,0,0.5,0,0.9,0c0-0.2,0-0.8,0-1.4c-0.4,0-0.9,0-1.2,0C4.8,2.3,4.8,3.6,4.8,3.8z"/>
</svg>
