<?xml version="1.0" encoding="utf-8"?>
<!-- Generator: Adobe Illustrator 18.1.1, SVG Export Plug-In . SVG Version: 6.00 Build 0)  -->
<!DOCTYPE svg PUBLIC "-//W3C//DTD SVG 1.1//EN" "http://www.w3.org/Graphics/SVG/1.1/DTD/svg11.dtd">
<svg version="1.1" id="Layer_1" xmlns="http://www.w3.org/2000/svg" xmlns:xlink="http://www.w3.org/1999/xlink" x="0px" y="0px"
	 viewBox="0 0 50 50" enable-background="new 0 0 50 50" xml:space="preserve">
<g opacity="0.5">
	<g>
		<path d="M28.6,8.3h-15c-1.4,0-2.5,1.1-2.5,2.5v28.8c0,1.4,1.1,2.5,2.5,2.5h22.2c1.4,0,2.5-1.1,2.5-2.5V18L28.6,8.3z M29.2,10.7
			l6.7,6.7h-5.5c-0.6,0-1.2-0.5-1.2-1.1L29.2,10.7z M37.1,39.8c0,0.7-0.5,1.2-1.2,1.2H13.4c-0.7,0-1.2-0.5-1.2-1.2V10.7
			c0-0.7,0.5-1.2,1.2-1.2H28v6.7c0,1.4,1,2.4,2.4,2.4h6.7V39.8z"/>
	</g>
</g>
<text transform="matrix(1 0 0 1 22.2185 29.6457)" font-family="'Lato-Bold'" font-size="10.7619">?</text>
</svg>
